<?xml version="1.0" encoding="UTF-8"?>
<CustomTab xmlns="http://soap.sforce.com/2006/04/metadata">
    <customObject>true</customObject>
    <description>Snapshot Tab made for Antje to give her the reporting type she wants.</description>
    <motif>Custom39: Telescope</motif>
</CustomTab>
