<?xml version="1.0" encoding="UTF-8"?>
<CustomTab xmlns="http://soap.sforce.com/2006/04/metadata">
    <customObject>true</customObject>
    <description>This is the object for running the weekly opportunities report in order to see the variances and changes month after month via Reporting Snapshot.</description>
    <motif>Custom39: Telescope</motif>
</CustomTab>
